Place,Name,BirthYear,Country,BodyweightKg,Bench1Kg,Bench2Kg,Bench3Kg,Bench4Kg,Best3BenchKg,TotalKg,Division,WeightClassKg,Event,Equipment,Sex
1,Carmelo Virzi,1957,GER,50.6,80,-90,92.5,,92.5,92.5,Masters 1,52,B,Single-ply,M
1,Rainer Falke,1965,GER,54.9,100,110,120,,120,120,Masters 1,56,B,Single-ply,M
2,Pekka Jussi,1960,SWE,55.6,90,100,-110,,100,100,Masters 1,56,B,Single-ply,M
1,Rex McLaren,1962,USA,59.2,140,142.5,145,,145,145,Masters 1,60,B,Single-ply,M
2,Hiroshi Azuma,1963,JPN,59.5,135,142.5,-147.5,,142.5,142.5,Masters 1,60,B,Single-ply,M
1,Erkki Rajala,1962,FIN,66.9,-172.5,-172.5,172.5,,172.5,172.5,Masters 1,67.5,B,Single-ply,M
2,Adriano DaCosta,1963,FRA,66.8,157.5,165,-170,,165,165,Masters 1,67.5,B,Single-ply,M
3,Pekka Kihlström,1959,SWE,67.5,-160,160,-167.5,,160,160,Masters 1,67.5,B,Single-ply,M
DQ,Takashi Mori,1963,JPN,67.3,-147.5,-150,-150,,,,Masters 1,67.5,B,Single-ply,M
1,Michael Hara,1960,USA,74.8,230,240,-245,,240,240,Masters 1,75,B,Single-ply,M
2,Roy Berndt,1966,GER,74.8,190,200,-210,,200,200,Masters 1,75,B,Single-ply,M
3,Tadashi Mishima,1962,JPN,73.4,-190,195,-210,,195,195,Masters 1,75,B,Single-ply,M
4,Fermin Romero,1966,ESP,74.5,-182.5,182.5,-197.5,,182.5,182.5,Masters 1,75,B,Single-ply,M
5,Shinobu Amatsuji,1962,JPN,73.7,170,-180,-182.5,,170,170,Masters 1,75,B,Single-ply,M
6,Brian Froggatt,1958,NZL,73.8,155,162.5,-167.5,,162.5,162.5,Masters 1,75,B,Single-ply,M
7,Patrick Czachor,1963,FRA,74.2,155,-162.5,-162.5,,155,155,Masters 1,75,B,Single-ply,M
8,Gary Prater,1964,GBR,74.9,135,-145,-147.5,,135,135,Masters 1,75,B,Single-ply,M
1,Andy Furnas,1964,USA,82.2,-202.5,-212.5,215,,215,215,Masters 1,82.5,B,Single-ply,M
2,Naoki Ishimoto,1962,JPN,79.9,212.5,-217.5,-217.5,,212.5,212.5,Masters 1,82.5,B,Single-ply,M
3,Greg Zangl,1961,USA,79.8,200,-210,-212.5,,200,200,Masters 1,82.5,B,Single-ply,M
4,Erik Rasmussen,1962,DEN,82,185,-192.5,-202.5,,185,185,Masters 1,82.5,B,Single-ply,M
5,Riad Shabana Ashraf,1962,EGY,82.3,-185,185,-192.5,,185,185,Masters 1,82.5,B,Single-ply,M
6,Victor Martinez,1964,COL,76.9,-170,-170,180,,180,180,Masters 1,82.5,B,Single-ply,M
7,Conny Andersson,1959,SWE,81.4,167.5,175,-190,,175,175,Masters 1,82.5,B,Single-ply,M
8,Kallie Van der Walt,1960,RSA,81.7,175,-185,-185,,175,175,Masters 1,82.5,B,Single-ply,M
9,Stephen King,1962,NZL,81.3,130,137.5,145,,145,145,Masters 1,82.5,B,Single-ply,M
DQ,Javier Bandera,1961,URU,81.2,-180,-180,-180,,,,Masters 1,82.5,B,Single-ply,M
1,Joseph McAuliffe,1965,USA,89.2,-245,-245,245,,245,245,Masters 1,90,B,Single-ply,M
2,Klaus-Dieter Jacob,1961,GER,89.8,207.5,215,220,,220,220,Masters 1,90,B,Single-ply,M
3,Patrick LeBlevennec,1963,FRA,88.2,200,212.5,-217.5,,212.5,212.5,Masters 1,90,B,Single-ply,M
4,Roland Eriksson,1964,SWE,89.2,190,-202.5,205,,205,205,Masters 1,90,B,Single-ply,M
5,Keith Arkle,1961,GBR,89.8,200,-210,-217.5,,200,200,Masters 1,90,B,Single-ply,M
6,Joel Roulot,1961,FRA,87.8,190,-200,-205,,190,190,Masters 1,90,B,Single-ply,M
7,Dana Rosenzweig,1957,USA,88.7,185,-190,-190,,185,185,Masters 1,90,B,Single-ply,M
DQ,Takeshi Kitagawa,1958,JPN,87.2,-212.5,-212.5,-220,,,,Masters 1,90,B,Single-ply,M
DQ,Thomas Ahl,1960,SWE,89.6,-215,-215,-215,,,,Masters 1,90,B,Single-ply,M
1,Ian Kinghorn,1959,GBR,98.9,-237.5,-237.5,237.5,,237.5,237.5,Masters 1,100,B,Single-ply,M
2,Juha Lehto,1964,FIN,99.3,-227.5,232.5,-240,,232.5,232.5,Masters 1,100,B,Single-ply,M
3,Yegi Williams,1965,RSA,97.9,-225,225,-232.5,,225,225,Masters 1,100,B,Single-ply,M
4,Joachim Flett,1958,GER,98.5,217.5,225,-232.5,,225,225,Masters 1,100,B,Single-ply,M
5,Michael Vuorisalo,1960,SWE,98.1,-215,215,-227.5,,215,215,Masters 1,100,B,Single-ply,M
6,Thomas Muller,1962,GER,98.9,202.5,-210,-210,,202.5,202.5,Masters 1,100,B,Single-ply,M
7,Aleksandar Rakočević,1963,SRG,99,-200,200,-210,,200,200,Masters 1,100,B,Single-ply,M
DQ,Kouichi Nakatani,1960,JPN,93.9,-222.5,-222.5,-222.5,,,,Masters 1,100,B,Single-ply,M
DQ,Olav Farstad Svein,1965,NOR,95.8,-230,-230,-232.5,,,,Masters 1,100,B,Single-ply,M
DQ,Francisco Perez,1964,ESP,98.5,-207.5,-207.5,-220,,,,Masters 1,100,B,Single-ply,M
DQ,Mikael Jaldefors,1966,SWE,99.7,-240,-240,-240,,,,Masters 1,100,B,Single-ply,M
1,Kevin Mayer,1966,USA,108,270,-277.5,277.5,,277.5,277.5,Masters 1,110,B,Single-ply,M
2,David Doan,1964,USA,109.2,-270,270,272.5,,272.5,272.5,Masters 1,110,B,Single-ply,M
3,Mariusz Hadrysiak,1961,POL,109.4,240,250,255,,255,255,Masters 1,110,B,Single-ply,M
4,Steve Lousich,1965,NZL,109.6,-245,245,-252.5,,245,245,Masters 1,110,B,Single-ply,M
5,Tetsuva Tanaka,1961,JPN,109.2,240,-250,-250,,240,240,Masters 1,110,B,Single-ply,M
6,Lars Ahlqvist,1958,SWE,101.3,185,195,200,,200,200,Masters 1,110,B,Single-ply,M
7,Daniel Royer,1957,CAN,109.2,177.5,187.5,-202.5,,187.5,187.5,Masters 1,110,B,Single-ply,M
8,Gary Katzen,1961,RSA,105.2,-170,175,-190,,175,175,Masters 1,110,B,Single-ply,M
1,Horace Lane,1964,USA,124,-297.5,297.5,-305,,297.5,297.5,Masters 1,125,B,Single-ply,M
2,Shawn O'Halloran,1965,CAN,123.3,290,-297.5,-297.5,,290,290,Masters 1,125,B,Single-ply,M
3,Markus Hoen,1966,GER,118.8,-240,245,250,,250,250,Masters 1,125,B,Single-ply,M
4,Thomas Stiemerling,1960,GER,115.4,-225,225,-230,,225,225,Masters 1,125,B,Single-ply,M
5,Michal Mihály,1966,CZE,121.3,220,-237.5,-240,,220,220,Masters 1,125,B,Single-ply,M
DQ,Rafal Mus,1964,POL,121.3,-240,-240,-247.5,,,,Masters 1,125,B,Single-ply,M
DQ,Risto Korhonen,1958,FIN,123.2,-190,-190,-190,,,,Masters 1,125,B,Single-ply,M
DQ,Strase Stojanovski,1962,AUS,124.6,-250,-250,-250,,,,Masters 1,125,B,Single-ply,M
DQ,Rene Echeverria,1958,ECU,125,-200,-200,-200,,,,Masters 1,125,B,Single-ply,M
1,Dan Gaudreau,1960,USA,166.4,290,-305,-320,,290,290,Masters 1,125+,B,Single-ply,M
2,Ichirou Uijie,1957,JPN,152.7,255,262.5,265,,265,265,Masters 1,125+,B,Single-ply,M
3,Jürgen Lochner,1959,GER,147.4,252.5,-260,-262.5,,252.5,252.5,Masters 1,125+,B,Single-ply,M
4,Matthew Mackey,1963,GBR,164,-227.5,235,-250,,235,235,Masters 1,125+,B,Single-ply,M
5,Yasuto Fukushima,1965,JPN,136.6,-230,230,-240,,230,230,Masters 1,125+,B,Single-ply,M
6,Michel Chervier,1961,FRA,130.5,-215,215,-230,,215,215,Masters 1,125+,B,Single-ply,M
DQ,Bill Gillespie,1959,USA,146.5,-327.5,-327.5,-327.5,,,,Masters 1,125+,B,Single-ply,M
DQ,Niels Stærkjær,1966,DEN,171,-305,-307.5,-320,,,,Masters 1,125+,B,Single-ply,M
1,Lars-Gunnar Hedlund,1955,SWE,55.7,105,110,112.5,,112.5,112.5,Masters 2,56,B,Single-ply,M
2,Katsuhiko Inba,1947,JPN,55.5,90,100,-110,,100,100,Masters 2,56,B,Single-ply,M
1,Takashi Kanaya,1948,JPN,59,135,140,-145,,140,140,Masters 2,60,B,Single-ply,M
2,Joachim Lietzau,1950,GER,59.1,-125,125,,,125,125,Masters 2,60,B,Single-ply,M
3,Seppo Flink,1953,FIN,58.3,102.5,107.5,-110,,107.5,107.5,Masters 2,60,B,Single-ply,M
1,Claude Sitruk,1950,FRA,63,175,182.5,-187.5,,182.5,182.5,Masters 2,67.5,B,Single-ply,M
2,Yoshikazu Kita,1950,JPN,67.2,137.5,145,-160,,145,145,Masters 2,67.5,B,Single-ply,M
3,Jozsef Kapor,1951,HUN,66.9,-142.5,-142.5,142.5,,142.5,142.5,Masters 2,67.5,B,Single-ply,M
4,Jouko Kastegren,1954,FIN,67,125,-130,-135,,125,125,Masters 2,67.5,B,Single-ply,M
5,Birger Sundstøl,1954,NOR,66.2,-112.5,-112.5,112.5,,112.5,112.5,Masters 2,67.5,B,Single-ply,M
6,Peter Yong,1951,USA,64.5,100,110,-115,,110,110,Masters 2,67.5,B,Single-ply,M
1,Larry Miller,1954,USA,74.2,210,-220,-220,,210,210,Masters 2,75,B,Single-ply,M
2,Yuji Kato,1948,JPN,74.5,167.5,172.5,180,,180,180,Masters 2,75,B,Single-ply,M
3,Jay Haines,1951,USA,74.4,-160,-160,160,,160,160,Masters 2,75,B,Single-ply,M
4,Winfried Bieberbach,1955,GER,74.5,135,140,-147.5,,140,140,Masters 2,75,B,Single-ply,M
DQ,Takeshi Monoe,1952,JPN,74,-155,-155,-155,,,,Masters 2,75,B,Single-ply,M
1,Mutsuo Yokoyama,1954,JPN,82.3,-215,215,220,,220,220,Masters 2,82.5,B,Single-ply,M
2,Bjarne Synstad,1951,NOR,80.1,200,205,-215,,205,205,Masters 2,82.5,B,Single-ply,M
3,Jim Klostergaard,1948,USA,81.4,177.5,-182.5,-182.5,,177.5,177.5,Masters 2,82.5,B,Single-ply,M
4,Lutz Schuricht,1951,GER,81.1,170,-177.5,-177.5,,170,170,Masters 2,82.5,B,Single-ply,M
5,Christian Moyaux,1952,FRA,81.7,150,-155,155,,155,155,Masters 2,82.5,B,Single-ply,M
DQ,Per-Ake Jonsson,1954,SWE,82.3,-180,-180,-180,,,,Masters 2,82.5,B,Single-ply,M
1,Tadashi Tachibana,1949,JPN,88.9,190,200,207.5,,207.5,207.5,Masters 2,90,B,Single-ply,M
2,Susumu Otani,1952,JPN,83.2,200,205,-210,,205,205,Masters 2,90,B,Single-ply,M
3,John Brookes,1955,GBR,89.1,185,195,-205,,195,195,Masters 2,90,B,Single-ply,M
4,Roy O'Dwyer,1952,USA,88.6,192.5,-197.5,-197.5,,192.5,192.5,Masters 2,90,B,Single-ply,M
5,Sven Thörngren,1950,SWE,84,-190,190,-202.5,,190,190,Masters 2,90,B,Single-ply,M
6,Jens Aarhus,1954,SWE,87.9,187.5,-195,-195,,187.5,187.5,Masters 2,90,B,Single-ply,M
7,Raffaele De Rose,1955,RSA,88.3,145,-155,-157.5,,145,145,Masters 2,90,B,Single-ply,M
1,Jerzy Furmanek,1952,POL,99.9,225,232.5,-240,,232.5,232.5,Masters 2,100,B,Single-ply,M
2,Jean-Pierre Aymon,1954,AUT,99.1,-210,210,-212.5,,210,210,Masters 2,100,B,Single-ply,M
3,Floyd Givens,1951,USA,98.8,195,205,-212.5,,205,205,Masters 2,100,B,Single-ply,M
4,Ulrich Vetter,1952,GER,98.5,190,195,-205,,195,195,Masters 2,100,B,Single-ply,M
5,Laurent Durocher,1952,FRA,98.6,190,195,-205,,195,195,Masters 2,100,B,Single-ply,M
6,Mieczyslaw Podmokly,1952,POL,98.4,175,-180,-182.5,,175,175,Masters 2,100,B,Single-ply,M
7,Martin Flett,1954,GBR,95,170,-182.5,-182.5,,170,170,Masters 2,100,B,Single-ply,M
8,Reijo Jaakkola,1948,FIN,97.8,150,160,170,,170,170,Masters 2,100,B,Single-ply,M
9,Graeme Gibson,1948,NZL,98.7,150,160,162.5,,162.5,162.5,Masters 2,100,B,Single-ply,M
10,Josef Mička,1949,CZE,97.7,140,-150,-150,,140,140,Masters 2,100,B,Single-ply,M
DQ,Stanislas Couchy,1953,FRA,96.8,-190,-190,-195,,,,Masters 2,100,B,Single-ply,M
1,Kari Vilppola,1955,FIN,109.5,220,-222.5,222.5,,222.5,222.5,Masters 2,110,B,Single-ply,M
2,Greg Chrun,1951,USA,106.9,-220,-220,220,,220,220,Masters 2,110,B,Single-ply,M
3,Chikara Takada,1954,JPN,101.4,-190,190,-195,,190,190,Masters 2,110,B,Single-ply,M
4,David Brooks,1952,GBR,109,190,-202.5,-202.5,,190,190,Masters 2,110,B,Single-ply,M
5,Miroslav Koprnicky,1951,CAN,100.9,160,165,-170,,165,165,Masters 2,110,B,Single-ply,M
6,Krzysztof Piwowar,1955,POL,108,-150,150,-170,,150,150,Masters 2,110,B,Single-ply,M
DQ,Simon Reitzle,1949,GER,105.4,-180,-180,-180,,,,Masters 2,110,B,Single-ply,M
1,Bradley Klinger,1956,USA,121.1,257.5,265,-272.5,,265,265,Masters 2,125,B,Single-ply,M
2,Michel Dufour,1955,FRA,123.5,210,220,227.5,,227.5,227.5,Masters 2,125,B,Single-ply,M
3,Kevin Hutchinson,1954,USA,122,212.5,220,-227.5,,220,220,Masters 2,125,B,Single-ply,M
4,Truls Nygaard,1956,NOR,117.5,210,212.5,-220,,212.5,212.5,Masters 2,125,B,Single-ply,M
DQ,Julian Massey,1956,GBR,115.1,-190,-195,-202.5,,,,Masters 2,125,B,Single-ply,M
1,Frank Beeler,1953,USA,148.9,240,252.5,-268,,252.5,252.5,Masters 2,125+,B,Single-ply,M
2,Piotr Pawlik,1955,POL,127.4,222.5,-230,230,,230,230,Masters 2,125+,B,Single-ply,M
3,Tuomo Löllö,1953,FIN,126.9,200,210,220,,220,220,Masters 2,125+,B,Single-ply,M
4,Ron Beuch,1950,USA,130,100,202.5,-212.5,,202.5,202.5,Masters 2,125+,B,Single-ply,M
5,Veselin Vujovic,1947,SRG,125.3,100,-215,-217.5,,100,100,Masters 2,125+,B,Single-ply,M
1,Hiraku Fushimi,1943,JPN,55.5,110,120,-125,,120,120,Masters 3,56,B,Single-ply,M
1,Pierre Gallart,1944,FRA,57.1,122.5,127.5,132.5,,132.5,132.5,Masters 3,60,B,Single-ply,M
2,Alexander Diepold,1937,GER,59.2,105,110,-112.5,,110,110,Masters 3,60,B,Single-ply,M
3,Katsuo Iwakami,1943,JPN,58.5,-105,107.5,-115.5,,107.5,107.5,Masters 3,60,B,Single-ply,M
4,Tadakazu Tsukuda,1944,JPN,59.3,-105,105,-112.5,,105,105,Masters 3,60,B,Single-ply,M
1,Toru Magome,1943,JPN,67.3,-160,160,-167.5,,160,160,Masters 3,67.5,B,Single-ply,M
2,Jules Pellegrino,1943,USA,67.1,132.5,137.5,140,,140,140,Masters 3,67.5,B,Single-ply,M
3,Teruo Shiraida,1943,JPN,61.9,127.5,-135,137.5,,137.5,137.5,Masters 3,67.5,B,Single-ply,M
4,Jose Russo,1940,FRA,64,125,132.5,-137.5,,132.5,132.5,Masters 3,67.5,B,Single-ply,M
5,Ludwig Pfaus,1942,GER,66.5,120,-125,-125,,120,120,Masters 3,67.5,B,Single-ply,M
DQ,Ivan Zwick,1939,USA,66.3,-132.5,-132.5,-137.5,,,,Masters 3,67.5,B,Single-ply,M
1,Allan Eriksson,1946,SWE,74.6,-155,160,162.5,,162.5,162.5,Masters 3,75,B,Single-ply,M
2,Alex Lee,1942,GBR,74.1,150,-160,160,,160,160,Masters 3,75,B,Single-ply,M
3,Harald Peschl,1945,GER,74.8,145,-152.5,-152.5,,145,145,Masters 3,75,B,Single-ply,M
4,Akira Kawashima,1936,JPN,70.9,-140,140,-145,,140,140,Masters 3,75,B,Single-ply,M
5,Hideo Kumakura,1936,JPN,74.1,-140,-140,140,,140,140,Masters 3,75,B,Single-ply,M
6,Mike Lawson,1941,USA,71.8,115,122.5,132.5,,132.5,132.5,Masters 3,75,B,Single-ply,M
7,Reynaldo Pascal-Casas,1944,FRA,73.3,132.5,-137.5,-137.5,,132.5,132.5,Masters 3,75,B,Single-ply,M
1,Louis Escolano,1945,FRA,81.6,165,170,173,,173,173,Masters 3,82.5,B,Single-ply,M
2,Jorgen Jorgensen Hahs,1944,DEN,80.6,150,162.5,170,173.5,170,170,Masters 3,82.5,B,Single-ply,M
3,Rudy Lozano,1939,USA,81.6,-165,165,-175,,165,165,Masters 3,82.5,B,Single-ply,M
4,Makoto Maehara,1944,JPN,81.2,150,-155,-155,,150,150,Masters 3,82.5,B,Single-ply,M
DQ,Börje Eriksson,1942,SWE,79.3,-160,-165,-165,,,,Masters 3,82.5,B,Single-ply,M
DQ,Emil Debastian,1944,GER,79.5,-140,-140,-140,,,,Masters 3,82.5,B,Single-ply,M
DQ,Toshio Kitano,1946,JPN,81.7,-162.5,-162.5,-165,,,,Masters 3,82.5,B,Single-ply,M
1,Bill Phillips,1938,USA,88.3,170,-175,175,,175,175,Masters 3,90,B,Single-ply,M
2,William McFadyen,1934,GBR,85.8,-170,170,-175,,170,170,Masters 3,90,B,Single-ply,M
3,Terry White,1941,USA,87.8,-160,160,-172.5,,160,160,Masters 3,90,B,Single-ply,M
4,Norman Anderson,1934,GBR,87.2,140,-145,-150,,140,140,Masters 3,90,B,Single-ply,M
5,William Kempen,1945,RSA,83.7,125,-132.5,-137.5,,125,125,Masters 3,90,B,Single-ply,M
1,Katsuji Kawabe,1942,JPN,93,165,172.5,177.5,,177.5,177.5,Masters 3,100,B,Single-ply,M
2,Marc Lebolay,1938,FRA,99.1,-175,175,-180,,175,175,Masters 3,100,B,Single-ply,M
3,William Helmich,1942,USA,99.2,160,-162.5,-162.5,,160,160,Masters 3,100,B,Single-ply,M
4,Peer Bjaaland,1942,NOR,90.3,152.5,-160,-160,,152.5,152.5,Masters 3,100,B,Single-ply,M
5,Gerd Fell,1938,GER,91.1,-152.5,152.5,-160,,152.5,152.5,Masters 3,100,B,Single-ply,M
6,Kari Mattila,1945,SWE,92.2,140,-150,-155,,140,140,Masters 3,100,B,Single-ply,M
7,Leif Waldeck,1939,SWE,98.5,-140,-140,140,,140,140,Masters 3,100,B,Single-ply,M
8,Klaus Feldmann,1936,SWE,98.1,-120,-120,120,,120,120,Masters 3,100,B,Single-ply,M
1,Clifford Tallman,1943,USA,108.6,185,-192.5,-192.5,,185,185,Masters 3,110,B,Single-ply,M
2,Kurt Nygård,1946,FIN,104.3,-175,-175,175,,175,175,Masters 3,110,B,Single-ply,M
3,Anthony Warren,1946,NZL,105.9,-160,160,-170,,160,160,Masters 3,110,B,Single-ply,M
4,Fred Smith,1944,GBR,108.2,-140,140,-145,,140,140,Masters 3,110,B,Single-ply,M
DQ,Bob Evans #1,1946,GBR,103.5,-182.5,-182.5,-182.5,,,,Masters 3,110,B,Single-ply,M
DQ,Marc Vergnes-Blanquer,1939,FRA,103.8,-180,-180,-180,,,,Masters 3,110,B,Single-ply,M
1,Niilo Maliniemi,1946,SWE,112.7,-222.5,-222.5,222.5,,222.5,222.5,Masters 3,125,B,Single-ply,M
2,Christer Nylund,1944,FIN,115.5,210,-220,-220,,210,210,Masters 3,125,B,Single-ply,M
3,Marsh Murray,1940,USA,118.6,160,-170,170,,170,170,Masters 3,125,B,Single-ply,M
1,Raimo Sandelin,1940,FIN,126.7,-150,-150,150,,150,150,Masters 3,125+,B,Single-ply,M
2,Sven Huberth,1943,SWE,126.7,125,145,-152.5,,145,145,Masters 3,125+,B,Single-ply,M
1,Marion Friedrich,1965,GER,43.9,-80,-80,80,,80,80,Masters 1,44,B,Single-ply,F
1,Lee-Ann Dalling,1962,CAN,49.3,80,85,-90,,85,85,Masters 1,52,B,Single-ply,F
2,Catherine Czachor,1960,FRA,51.6,77.5,82.5,-90,,82.5,82.5,Masters 1,52,B,Single-ply,F
3,Helene Fallermo,1964,SWE,50.3,72.5,-77.5,77.5,,77.5,77.5,Masters 1,52,B,Single-ply,F
4,Barnadette Andreani,1958,FRA,51.4,-65,65,67.5,,67.5,67.5,Masters 1,52,B,Single-ply,F
5,Liselott Larsson,1962,SWE,51.5,55,-62.5,-62.5,,55,55,Masters 1,52,B,Single-ply,F
1,Karen Thomson,1962,NZL,55.1,80,85,-92.5,,85,85,Masters 1,56,B,Single-ply,F
2,Leigh Haines,1960,USA,55.5,70,-75,-75,,70,70,Masters 1,56,B,Single-ply,F
3,Wing-Yuk Ip,1961,HKG,56,62.5,67.5,-72.5,,67.5,67.5,Masters 1,56,B,Single-ply,F
4,Margit Flett,1959,GER,55.5,60,-62.5,62.5,,62.5,62.5,Masters 1,56,B,Single-ply,F
1,Daniele Boulnois-Taret,1958,FRA,57,102.5,110,-115,,110,110,Masters 1,60,B,Single-ply,F
2,Monika Schnoltzer,1961,GER,58.4,95,100,102.5,,102.5,102.5,Masters 1,60,B,Single-ply,F
3,Chiharu Sakai,1963,JPN,58.5,-90,95,-100,,95,95,Masters 1,60,B,Single-ply,F
4,Angela Simons,1961,USA,59.1,-95,95,-102.5,,95,95,Masters 1,60,B,Single-ply,F
DQ,Connie Jansson,1966,SWE,58.8,-87.5,-87.5,-87.5,,,,Masters 1,60,B,Single-ply,F
1,Kathy Smith-Jones,1958,USA,66.4,85,92.5,95,,95,95,Masters 1,67.5,B,Single-ply,F
2,Patricia Maciejewski,1961,FRA,64.4,85,90,-92.5,,90,90,Masters 1,67.5,B,Single-ply,F
3,Jannica Cassegard,1962,SWE,64.7,87.5,-92.5,-92.5,,87.5,87.5,Masters 1,67.5,B,Single-ply,F
4,Serena Perry,1965,NZL,65,80,-85,85,,85,85,Masters 1,67.5,B,Single-ply,F
5,Patricia Siveny,1960,USA,63.5,80,-87.5,-92.5,,80,80,Masters 1,67.5,B,Single-ply,F
6,Margareta Jussi,1958,SWE,62.8,60,-67.5,-67.5,,60,60,Masters 1,67.5,B,Single-ply,F
1,Ursula Häuser,1960,GER,74.1,110,115,-117.5,,115,115,Masters 1,75,B,Single-ply,F
2,Åsa Halvarsson,1961,SWE,74.1,-95,97.5,-105,,97.5,97.5,Masters 1,75,B,Single-ply,F
3,Lucia Feraud Montene Montenegro,1965,ECU,69.7,80,85,-90,,85,85,Masters 1,75,B,Single-ply,F
4,Erna Bieberbach,1959,GER,73.3,65,-72.5,-72.5,,65,65,Masters 1,75,B,Single-ply,F
1,Nathalie Cornu,1963,FRA,75.1,105,112.5,-120,,112.5,112.5,Masters 1,82.5,B,Single-ply,F
2,Pam Zangl,1961,USA,81.1,-85,85,-105,,85,85,Masters 1,82.5,B,Single-ply,F
1,Barbara Pawlik,1959,POL,83.9,115,120,-122.5,,120,120,Masters 1,90,B,Single-ply,F
2,Holly Oxford,1958,USA,88.8,97.5,-110,110,,110,110,Masters 1,90,B,Single-ply,F
3,Malinda Baum,1963,USA,83.9,-92.5,92.5,97.5,,97.5,97.5,Masters 1,90,B,Single-ply,F
1,Deborah Ferrell,1964,USA,120.3,-170,183,190,,190,190,Masters 1,90+,B,Single-ply,F
2,Paullete Calhoun,1958,USA,94,90,-95,-97.5,,90,90,Masters 1,90+,B,Single-ply,F
1,Trish Muldrock,1954,NZL,47.2,-75,75,77.5,,77.5,77.5,Masters 2,48,B,Single-ply,F
2,Ann Leverett,1954,USA,47.6,70,-75,-80,,70,70,Masters 2,48,B,Single-ply,F
3,Maryse Suire,1946,FRA,47.3,60,-62.5,-62.5,,60,60,Masters 2,48,B,Single-ply,F
4,Karen Povner,1956,USA,47.5,55,-60,-60,,55,55,Masters 2,48,B,Single-ply,F
1,Hisako Yoshida,1951,JPN,51.6,75,-80,80,,80,80,Masters 2,52,B,Single-ply,F
2,Deborah Hairston,1954,USA,51.5,65,-70,-70,,65,65,Masters 2,52,B,Single-ply,F
3,Françoise Heligon,1943,FRA,48.8,55,-57.5,-57.5,,55,55,Masters 2,52,B,Single-ply,F
1,Karin Engelbreht,1956,GER,52.1,82.5,85,87.5,,87.5,87.5,Masters 2,56,B,Single-ply,F
2,Jeanne Harms,1953,USA,55.9,70,75,-77.5,,75,75,Masters 2,56,B,Single-ply,F
3,Franqoise Peron-Sahut,1956,FRA,54.8,72.5,-75,-77.5,,72.5,72.5,Masters 2,56,B,Single-ply,F
4,Hisako Hayashi,1951,JPN,53.7,65,67.5,-77.5,,67.5,67.5,Masters 2,56,B,Single-ply,F
DQ,Aira Knutars,1954,FIN,53,-77.5,-77.5,-77.5,,,,Masters 2,56,B,Single-ply,F
1,Chiyomi Sawa,1949,JPN,59.4,102.5,-108,-108,,102.5,102.5,Masters 2,60,B,Single-ply,F
2,Tonia Strik,1950,NED,59,-82.5,-82.5,82.5,,82.5,82.5,Masters 2,60,B,Single-ply,F
3,Ellen Stein,1953,USA,58.1,75,-80,-80,,75,75,Masters 2,60,B,Single-ply,F
1,Evelyne Herbin,1956,FRA,61.5,75,80,-82.5,,80,80,Masters 2,67.5,B,Single-ply,F
2,Kumiko Nakazawa,1948,JPN,64.3,52.5,-57.5,-57.5,,52.5,52.5,Masters 2,67.5,B,Single-ply,F
DQ,Helen Sauer,1952,USA,66,-107.5,-107.5,-107.5,,,,Masters 2,67.5,B,Single-ply,F
1,Terry Lee,1954,USA,68.8,82.5,-85,85,,85,85,Masters 2,75,B,Single-ply,F
2,Mayumi Sakuma,1954,JPN,68.4,-75,-75,75,,75,75,Masters 2,75,B,Single-ply,F
3,Regina Hackney,1939,USA,71.8,60,65,72.5,,72.5,72.5,Masters 2,75,B,Single-ply,F
4,Denise Ouellet,1943,CAN,72,60,70,-72.5,,70,70,Masters 2,75,B,Single-ply,F
1,Hana Takáčová,1954,CZE,78.5,127.5,-132.5,-132.5,,127.5,127.5,Masters 2,82.5,B,Single-ply,F
2,Ursula Eulenstein,1949,GER,80.1,80,85,-87.5,,85,85,Masters 2,82.5,B,Single-ply,F
1,Eva Speth,1954,GER,88.2,120,125,-130.5,,125,125,Masters 2,90,B,Single-ply,F
1,Fran Houston,1949,USA,136.6,112.5,120,-125,,120,120,Masters 2,90+,B,Single-ply,F
