Name,Sex,WeightClassKg,Division,Best3SquatKg,Best3BenchKg,Best3DeadliftKg,TotalKg,Place,Event,Equipment
Jim Ambrose,M,67.5,Open,175,120,225,520,1,SBD,Single-ply
Alan Scherini,M,82.5,Open,215,135,237.5,587.5,1,SBD,Single-ply
Aaron Wolfe,M,82.5,Open,215,135,215,565,2,SBD,Single-ply
Bill Ogburn,M,90,Open,210,127.5,250,587.5,1,SBD,Single-ply
David Sharples,M,100,Open,200,120,205,525,1,SBD,Single-ply
Ian Sullivan,M,100,Open,130,145,160,435,2,SBD,Single-ply
Glen Farrell,M,110,Open,180,130,140,450,1,SBD,Single-ply
Brett Dowsett,M,125,Open,272.5,205,260,737.5,1,SBD,Single-ply
Bradley Horne,M,125+,Open,300,180,320,800,1,SBD,Single-ply
